{
    "name": "basic",
    "center": [
        0,
        0,
        0
    ],
    "bounds": [
        -180,
        -85.0511,
        180,
        85.0511
    ],
    "tilejson": "2.1.0",
    "scheme": "xyz",
    "format": "pbf",
    "minzoom": 0,
    "maxzoom": 14,
    "tiles": [
        "{host}/map/pbf/osm/{z}/{x}/{y}.vector.pbf"
    ],
    "vector_layers": [
        {
            "id": "landuse",
            "minzoom": 0,
            "maxzoom": 22,
            "source": "osm",
            "source_name": "osm"
        },
        {
            "id": "waterway",
            "minzoom": 0,
            "maxzoom": 22,
            "source": "osm",
            "source_name": "osm"
        },
        {
            "id": "water",
            "minzoom": 0,
            "maxzoom": 22,
            "source": "osm",
            "source_name": "osm"
        },
        {
            "id": "aeroway",
            "minzoom": 0,
            "maxzoom": 22,
            "source": "osm",
            "source_name": "osm"
        },
        {
            "id": "barrier_line",
            "minzoom": 0,
            "maxzoom": 22,
            "source": "osm",
            "source_name": "osm"
        },
        {
            "id": "building",
            "minzoom": 0,
            "maxzoom": 22,
            "source": "osm",
            "source_name": "osm"
        },
        {
            "id": "landuse_overlay",
            "minzoom": 0,
            "maxzoom": 22,
            "source": "osm",
            "source_name": "osm"
        },
        {
            "id": "road",
            "minzoom": 0,
            "maxzoom": 22,
            "source": "osm",
            "source_name": "osm"
        },
        {
            "id": "admin",
            "minzoom": 0,
            "maxzoom": 22,
            "source": "osm",
            "source_name": "osm"
        },
        {
            "id": "country_label",
            "minzoom": 0,
            "maxzoom": 22,
            "source": "osm",
            "source_name": "osm"
        },
        {
            "id": "marine_label",
            "minzoom": 0,
            "maxzoom": 22,
            "source": "osm",
            "source_name": "osm"
        },
        {
            "id": "state_label",
            "minzoom": 0,
            "maxzoom": 22,
            "source": "osm",
            "source_name": "osm"
        },
        {
            "id": "place_label",
            "minzoom": 0,
            "maxzoom": 22,
            "source": "osm",
            "source_name": "osm"
        },
        {
            "id": "water_label",
            "minzoom": 0,
            "maxzoom": 22,
            "source": "osm",
            "source_name": "osm"
        },
        {
            "id": "airport_label",
            "minzoom": 0,
            "maxzoom": 22,
            "source": "osm",
            "source_name": "osm"
        },
        {
            "id": "rail_station_label",
            "minzoom": 0,
            "maxzoom": 22,
            "source": "osm",
            "source_name": "osm"
        },
        {
            "id": "mountain_peak_label",
            "minzoom": 0,
            "maxzoom": 22,
            "source": "osm",
            "source_name": "osm"
        },
        {
            "id": "poi_label",
            "minzoom": 0,
            "maxzoom": 22,
            "source": "osm",
            "source_name": "osm"
        },
        {
            "id": "motorway_junction",
            "minzoom": 0,
            "maxzoom": 22,
            "source": "osm",
            "source_name": "osm"
        },
        {
            "id": "road_label",
            "minzoom": 0,
            "maxzoom": 22,
            "source": "osm",
            "source_name": "osm"
        },
        {
            "id": "waterway_label",
            "minzoom": 0,
            "maxzoom": 22,
            "source": "osm",
            "source_name": "osm"
        },
        {
            "id": "housenum_label",
            "minzoom": 0,
            "maxzoom": 22,
            "source": "osm",
            "source_name": "osm"
        }
    ]
}