{
  "autoscale": true,
  "bounds": [-180, -85, 180, 85],
  "cacheControl": "max-age=43200,s-maxage=604800",
  "center": [0, 0, 3],
  "created": 1358310600000,
  "id": "vfr",
  "maxzoom": 10,
  "minzoom": 0,
  "name": "VFR",
  "scheme": "xyz",
  "tilejson": "2.0.0",
  "tiles": [
    "{host}/map/charts/vfr/{z}/{x}/{y}"
  ]
}
